text22222222222222222222222222222  - from branch master
text22222222222222222222222222222  - from branch master


text2 2222222222222222222 - from branch devlop


text2 2222222222222222222 - from branch devlop
